GET /v2/animals?location=Irvine%2C+CA&type=dog&limit=1 HTTP/1.1
User-Agent: HTTPie/2.6.0
Accept-Encoding: gzip, deflate
Accept: */*
Connection: keep-alive
Authorization: Bearer eyJ0eXAiOiJKV1QiLCJhbGciOiJSUzI1NiJ9.eyJhdWQiOiJuT0RoMEN2N01VeElkNFBPWG8wQkRBaGg3RE9VenI0NXh5eEV3dVNrVkJPbFFQeVFlYiIsImp0aSI6IjE4YjdhYzQ4ZmNmNGRlNWEzZmNjY2FkMjVkMjU0MGE0MTE3Nzc1NjFjYzIzZTZiYzc4ZTA0Y2M2ODFjOGFlYzBmY2QyZjVjOWE4NjUwNjY4IiwiaWF0IjoxNjYzODk2MTc5LCJuYmYiOjE2NjM4OTYxNzksImV4cCI6MTY2Mzg5OTc3OSwic3ViIjoiIiwic2NvcGVzIjpbXX0.xX1_is3qTQK0geKJ9_KGBG0fWIhv4djxVLgNWXICktUCsGXg4Zk2TAqNcqFIKMcm-e2Zwu_Woof8Q-8bboyy9zuNRdjU4nklO7Z053Y_OUPe45V6WZ_GCM_Mk_nhAsuCB9VGbG4GUyakLPdRV5kxVMV94fpZAS-tmH1BPwYsUDWA_9vRATSnXchgyRubehtGeb1GKrfDwvNcLcFz0Hw5Vvn3uobxJu1-2X3qH3iu1-qAAkkBjDDcRERJN6pZMsBZalaio2DlO3LNjfzCGN88dyndqK9TQQKoKLVxWNLG-AjLiQ5EsCC8w9a3BM_wlojpaumG2kbcTVYzSlaZ_XoBcg
Host: api.petfinder.com



HTTP/1.1 200 OK
Content-Type: application/json
Content-Length: 1053
Connection: keep-alive
Date: Fri, 23 Sep 2022 01:28:49 GMT
x-amzn-RequestId: f537a67a-1199-4611-875b-7793ccf0302b
Access-Control-Allow-Origin: *
Content-Encoding: gzip
Strict-Transport-Security: max-age=31536000; includeSubDomains
x-amzn-Remapped-Connection: keep-alive
x-amz-apigw-id: Y47IpEycIAMFggw=
Cache-Control: no-cache, private
x-amzn-Remapped-Date: Fri, 23 Sep 2022 01:28:49 GMT
Vary: Accept-Encoding
X-Cache: Miss from cloudfront
Via: 1.1 d6ded095ff5c3cb91656796223a09360.cloudfront.net (CloudFront)
X-Amz-Cf-Pop: LAX53-P2
X-Amz-Cf-Id: 2QI7rIp2WN0lo28IZ5sWPjVCV2ON9NT6W7AdOY51oKWABFba43QfFQ==

{"animals":[{"id":57528193,"organization_id":"CA2605","url":"https:\/\/www.petfinder.com\/dog\/nadine-57528193\/ca\/moreno-valley\/bubbas-hug-a-pug-rescue-ca2605\/?referrer_id=98efb04f-82c7-4a7e-876b-1d13a2d7faeb","type":"Dog","species":"Dog","breeds":{"primary":"Pug","secondary":null,"mixed":false,"unknown":false},"colors":{"primary":"Yellow \/ Tan \/ Blond \/ Fawn","secondary":null,"tertiary":null},"age":"Baby","gender":"Female","size":"Small","coat":"Short","attributes":{"spayed_neutered":false,"house_trained":false,"declawed":null,"special_needs":false,"shots_current":true},"environment":{"children":true,"dogs":true,"cats":true},"tags":["Smart","Friendly","Curious","Protective","Athletic","Quiet","Dignified","Funny","Loves kisses","Couch potato","Independent","Brave","Playful","Loyal","Affectionate"],"name":"Nadine","description":"Nadine is a 9 week old female pug. She is up to date on her shots. She is not fixed...","organization_animal_id":null,"photos":[{"small":"https:\/\/dl5zpyw5k3jeb.cloudfront.net\/photos\/pets\/57528193\/1\/?bust=1663895589\u0026width=100","medium":"https:\/\/dl5zpyw5k3jeb.cloudfront.net\/photos\/pets\/57528193\/1\/?bust=1663895589\u0026width=300","large":"https:\/\/dl5zpyw5k3jeb.cloudfront.net\/photos\/pets\/57528193\/1\/?bust=1663895589\u0026width=600","full":"https:\/\/dl5zpyw5k3jeb.cloudfront.net\/photos\/pets\/57528193\/1\/?bust=1663895589"},{"small":"https:\/\/dl5zpyw5k3jeb.cloudfront.net\/photos\/pets\/57528193\/2\/?bust=1663895589\u0026width=100","medium":"https:\/\/dl5zpyw5k3jeb.cloudfront.net\/photos\/pets\/57528193\/2\/?bust=1663895589\u0026width=300","large":"https:\/\/dl5zpyw5k3jeb.cloudfront.net\/photos\/pets\/57528193\/2\/?bust=1663895589\u0026width=600","full":"https:\/\/dl5zpyw5k3jeb.cloudfront.net\/photos\/pets\/57528193\/2\/?bust=1663895589"}],"primary_photo_cropped":{"small":"https:\/\/dl5zpyw5k3jeb.cloudfront.net\/photos\/pets\/57528193\/1\/?bust=1663895589\u0026width=300","medium":"https:\/\/dl5zpyw5k3jeb.cloudfront.net\/photos\/pets\/57528193\/1\/?bust=1663895589\u0026width=450","large":"https:\/\/dl5zpyw5k3jeb.cloudfront.net\/photos\/pets\/57528193\/1\/?bust=1663895589\u0026width=600","full":"https:\/\/dl5zpyw5k3jeb.cloudfront.net\/photos\/pets\/57528193\/1\/?bust=1663895589"},"videos":[],"status":"adoptable","status_changed_at":"2022-09-23T01:13:11+0000","published_at":"2022-09-23T01:13:11+0000","distance":41.8254,"contact":{"email":"info@bubbashugapugrescue.org","phone":"9518977831","address":{"address1":null,"address2":null,"city":"Moreno Valley","state":"CA","postcode":"92556","country":"US"}},"_links":{"self":{"href":"\/v2\/animals\/57528193"},"type":{"href":"\/v2\/types\/dog"},"organization":{"href":"\/v2\/organizations\/ca2605"}}}],"pagination":{"count_per_page":1,"total_count":10521,"current_page":1,"total_pages":10521,"_links":{"next":{"href":"\/v2\/animals?limit=1\u0026location=Irvine,%20CA\u0026type=dog\u0026page=2"}}}}